…
    ## Warning: There was 1 warning in `mutate()`.
    ## ℹ In argument: `test = map2(unhomicides, n, ~prop.test(.x, .y))`.
    ## Caused by warning in `prop.test()`:
    ## ! Chi-squared approximation may be incorrect

``` r
xx
```

    ## # A tibble: 51 × 5
    ##    city_state     estimate conf.low conf.high confidence                        
    ##    <chr>             <dbl>    <dbl>     <dbl> <chr>                             
    ##  1 Albuquerque NM    0.386    0.337     0.438 [ 0.337260384254284 0.43757660655…
    ##  2 Atlanta GA        0.383    0.353     0.415 [ 0.352811897036302 0.41482188395…
    ##  3 Baltimore MD      0.646    0.628     0.663 [ 0.627562457662644 0.66315986040…
    ##  4 Baton Rouge LA    0.462    0.414     0.511 [ 0.414198741860307 0.51102396001…
    ##  5 Birmingham AL     0.434    0.399     0.469 [ 0.399188948632167 0.46895574818…
    ##  6 Boston MA         0.505    0.465     0.545 [ 0.464621930200304 0.54508805177…
    ##  7 Buffalo NY        0.612    0.569     0.654 [ 0.568798964634228 0.65408793925…
    ##  8 Charlotte NC      0.300    0.266     0.336 [ 0.26608198188312 0.335899860867…
    ##  9 Chicago IL        0.736    0.724     0.747 [ 0.723995888425454 0.74739978730…
    ## 10 Cincinnati OH     0.445    0.408     0.483 [ 0.407960574220688 0.48314388061…
    ## # ℹ 41 more rows
…
